<?xml version="1.0" encoding="utf-8"?>
<COLLADA xmlns="http://www.collada.org/2005/11/COLLADASchema" version="1.4.1">
  <asset>
    <contributor>
      <author/>
      <authoring_tool>FBX COLLADA exporter</authoring_tool>
      <comments/>
    </contributor>
    <created>2020-09-01T05:06:22Z</created>
    <keywords/>
    <modified>2020-09-01T05:06:22Z</modified>
    <revision/>
    <subject/>
    <title/>
    <unit meter="0.010000" name="centimeter"/>
    <up_axis>Y_UP</up_axis>
  </asset>
  <library_materials>
    <material id="lambert1" name="lambert1">
      <instance_effect url="#lambert1-fx"/>
    </material>
  </library_materials>
  <library_effects>
    <effect id="lambert1-fx" name="lambert1">
      <profile_COMMON>
        <technique sid="standard">
          <lambert>
            <emission>
              <color sid="emission">0.000000  0.000000 0.000000 1.000000</color>
            </emission>
            <ambient>
              <color sid="ambient">0.000000  0.000000 0.000000 1.000000</color>
            </ambient>
            <diffuse>
              <color sid="diffuse">0.400000  0.400000 0.400000 1.000000</color>
            </diffuse>
            <transparent opaque="RGB_ZERO">
              <color sid="transparent">0.000000  0.000000 0.000000 1.000000</color>
            </transparent>
            <transparency>
              <float sid="transparency">1.000000</float>
            </transparency>
          </lambert>
        </technique>
      </profile_COMMON>
    </effect>
  </library_effects>
  <library_geometries>
    <geometry id="polySurface1-lib" name="polySurface1Mesh">
      <mesh>
        <source id="polySurface1-POSITION">
          <float_array id="polySurface1-POSITION-array" count="102">
-0.368467 -0.500000 0.368467
0.368467 -0.500000 0.368467
-0.324814 -0.414826 0.324814
0.324814 -0.414826 0.324814
-0.324814 -0.414826 -0.324814
0.324814 -0.414826 -0.324814
-0.368467 -0.500000 -0.368467
0.368467 -0.500000 -0.368467
0.008703 -0.414826 0.440764
0.008703 -0.414826 -0.440764
0.009873 -0.500000 -0.500000
0.009873 -0.500000 0.500000
0.440764 -0.414826 0.012362
-0.440764 -0.414826 0.012362
-0.500000 -0.500000 0.014023
0.009873 -0.500000 0.014023
0.500000 -0.500000 0.014023
-0.257958 -0.414584 0.257958
0.006912 -0.414584 0.350042
-0.350042 -0.414584 0.009818
0.257958 -0.414584 0.257958
0.350042 -0.414584 0.009818
0.257958 -0.414584 -0.257958
0.006912 -0.414584 -0.350042
-0.257958 -0.414584 -0.257958
-0.224046 -0.521371 0.224046
0.006003 -0.521371 0.304024
0.006003 -0.521371 0.008527
-0.304024 -0.521371 0.008527
0.224046 -0.521371 0.224046
0.304024 -0.521371 0.008527
0.224046 -0.521371 -0.224046
0.006003 -0.521371 -0.304024
-0.224046 -0.521371 -0.224046
</float_array>
          <technique_common>
            <accessor source="#polySurface1-POSITION-array" count="34" stride="3">
              <param name="X" type="float"/>
              <param name="Y" type="float"/>
              <param name="Z" type="float"/>
            </accessor>
          </technique_common>
        </source>
        <source id="polySurface1-Normal0">
          <float_array id="polySurface1-Normal0-array" count="576">
-0.275026 0.546396 0.791083
0.001312 0.570974 0.820967
-0.001024 0.570953 0.820982
0.001312 0.570974 0.820967
-0.275026 0.546396 0.791083
-0.275026 0.546396 0.791083
0.000000 1.000000 0.000000
0.000000 1.000000 0.000000
0.000000 1.000000 0.000000
0.000000 1.000000 0.000000
0.000000 1.000000 0.000000
0.000000 1.000000 -0.000000
0.001312 0.570974 -0.820967
-0.275026 0.546396 -0.791083
-0.275026 0.546396 -0.791083
0.001312 0.570974 -0.820967
-0.275026 0.546396 -0.791083
-0.001024 0.570953 -0.820982
0.000000 -1.000000 0.000000
0.000000 -1.000000 0.000000
0.000000 -1.000000 0.000000
0.000000 -1.000000 0.000000
0.000000 -1.000000 0.000000
0.000000 -1.000000 0.000000
0.782898 0.550148 0.290531
0.820958 0.570986 0.001863
0.820988 0.570943 -0.001454
0.820958 0.570986 0.001863
0.782898 0.550148 0.290531
0.782898 0.550148 0.290531
-0.782898 0.550148 0.290531
-0.820958 0.570986 0.001863
-0.782898 0.550148 0.290531
-0.820958 0.570986 0.001863
-0.782898 0.550148 0.290531
-0.820988 0.570943 -0.001454
0.000000 1.000000 0.000000
0.000000 1.000000 0.000000
0.000000 1.000000 0.000000
0.000000 1.000000 0.000000
0.000000 1.000000 0.000000
0.000000 1.000000 0.000000
-0.001024 0.570953 -0.820982
0.287720 0.549479 -0.784404
0.001312 0.570974 -0.820967
0.287720 0.549479 -0.784404
0.001312 0.570974 -0.820967
0.287720 0.549479 -0.784404
0.000000 -1.000000 0.000000
0.000000 -1.000000 0.000000
0.000000 -1.000000 0.000000
0.000000 -1.000000 0.000000
0.000000 -1.000000 0.000000
0.000000 -1.000000 0.000000
0.001312 0.570974 0.820967
0.287720 0.549479 0.784404
-0.001024 0.570953 0.820982
0.287720 0.549479 0.784404
0.001312 0.570974 0.820967
0.287720 0.549479 0.784404
0.000000 1.000000 0.000000
0.000000 1.000000 -0.000000
0.000000 1.000000 0.000000
0.000000 1.000000 0.000000
0.000000 1.000000 -0.000000
0.000000 1.000000 -0.000000
0.000000 1.000000 0.000000
0.000000 1.000000 -0.000000
0.000000 1.000000 -0.000000
0.000000 1.000000 -0.000000
0.000000 1.000000 0.000000
0.000000 1.000000 -0.000000
-0.820958 0.570986 0.001863
-0.792392 0.545768 -0.272492
-0.792392 0.545768 -0.272492
-0.792392 0.545768 -0.272492
-0.820958 0.570986 0.001863
-0.820988 0.570943 -0.001454
0.000000 -1.000000 0.000000
0.000000 -1.000000 0.000000
0.000000 -1.000000 0.000000
0.000000 -1.000000 0.000000
0.000000 -1.000000 0.000000
0.000000 -1.000000 0.000000
0.000000 -1.000000 0.000000
0.000000 -1.000000 0.000000
0.000000 -1.000000 0.000000
0.000000 -1.000000 0.000000
0.000000 -1.000000 0.000000
0.000000 -1.000000 0.000000
0.820958 0.570986 0.001863
0.792392 0.545768 -0.272492
0.820988 0.570943 -0.001454
0.792392 0.545768 -0.272492
0.820958 0.570986 0.001863
0.792392 0.545768 -0.272492
-0.000932 0.999996 0.002680
-0.000932 0.999996 0.002680
-0.000932 0.999996 0.002680
-0.000932 0.999996 0.002680
-0.000932 0.999996 0.002680
-0.000932 0.999996 0.002680
-0.002634 0.999996 0.000978
-0.002634 0.999996 0.000978
-0.002634 0.999996 0.000978
-0.002634 0.999996 0.000978
-0.002634 0.999996 0.000978
-0.002634 0.999996 0.000978
0.000969 0.999996 0.002641
0.000969 0.999996 0.002641
0.000969 0.999996 0.002641
0.000969 0.999996 0.002641
0.000969 0.999996 0.002641
0.000969 0.999996 0.002641
0.002634 0.999996 0.000978
0.002634 0.999996 0.000978
0.002634 0.999996 0.000978
0.002634 0.999996 0.000978
0.002634 0.999996 0.000978
0.002634 0.999996 0.000978
0.002687 0.999996 -0.000924
0.002687 0.999996 -0.000924
0.002687 0.999996 -0.000924
0.002687 0.999996 -0.000924
0.002687 0.999996 -0.000924
0.002687 0.999996 -0.000924
0.000969 0.999996 -0.002642
0.000969 0.999996 -0.002642
0.000969 0.999996 -0.002642
0.000969 0.999996 -0.002642
0.000969 0.999996 -0.002642
0.000969 0.999996 -0.002642
-0.000932 0.999996 -0.002680
-0.000932 0.999996 -0.002680
-0.000932 0.999996 -0.002680
-0.000932 0.999996 -0.002680
-0.000932 0.999996 -0.002680
-0.000932 0.999996 -0.002680
-0.002687 0.999996 -0.000924
-0.002687 0.999996 -0.000924
-0.002687 0.999996 -0.000924
-0.002687 0.999996 -0.000924
-0.002687 0.999996 -0.000924
-0.002687 0.999996 -0.000924
0.304445 0.374775 -0.875704
0.304445 0.374775 -0.875703
0.304445 0.374775 -0.875704
0.304445 0.374775 -0.875703
0.304445 0.374775 -0.875704
0.304445 0.374775 -0.875704
0.867992 0.377936 -0.322109
0.867992 0.377936 -0.322109
0.867992 0.377936 -0.322109
0.867992 0.377936 -0.322109
0.867992 0.377936 -0.322109
0.867992 0.377936 -0.322109
-0.318904 0.377372 -0.869420
-0.318904 0.377372 -0.869420
-0.318904 0.377372 -0.869420
-0.318904 0.377372 -0.869420
-0.318904 0.377372 -0.869420
-0.318904 0.377372 -0.869420
-0.867992 0.377936 -0.322109
-0.867992 0.377936 -0.322109
-0.867992 0.377936 -0.322109
-0.867992 0.377936 -0.322109
-0.867992 0.377936 -0.322109
-0.867992 0.377936 -0.322109
-0.876926 0.374248 0.301562
-0.876926 0.374248 0.301562
-0.876926 0.374248 0.301562
-0.876926 0.374248 0.301562
-0.876926 0.374248 0.301562
-0.876926 0.374248 0.301562
-0.318904 0.377372 0.869420
-0.318904 0.377372 0.869420
-0.318904 0.377372 0.869420
-0.318904 0.377372 0.869420
-0.318904 0.377372 0.869420
-0.318904 0.377372 0.869420
0.304445 0.374775 0.875704
0.304445 0.374775 0.875704
0.304445 0.374776 0.875704
0.304445 0.374775 0.875704
0.304445 0.374775 0.875704
0.304445 0.374775 0.875704
0.876926 0.374248 0.301562
0.876926 0.374248 0.301562
0.876926 0.374248 0.301562
0.876926 0.374248 0.301562
0.876926 0.374248 0.301562
0.876926 0.374248 0.301562
</float_array>
          <technique_common>
            <accessor source="#polySurface1-Normal0-array" count="192" stride="3">
              <param name="X" type="float"/>
              <param name="Y" type="float"/>
              <param name="Z" type="float"/>
            </accessor>
          </technique_common>
        </source>
        <source id="polySurface1-UV0">
          <float_array id="polySurface1-UV0-array" count="90">
0.375000 0.000000
0.502468 0.000000
0.502468 0.250000
0.375000 0.250000
0.375000 0.250000
0.502468 0.250000
0.502468 0.371494
0.375000 0.371494
0.375000 0.500000
0.502468 0.500000
0.502468 0.750000
0.375000 0.750000
0.375000 0.878506
0.502468 0.878506
0.502468 1.000000
0.375000 1.000000
0.625000 0.000000
0.746494 0.000000
0.746494 0.250000
0.625000 0.250000
0.253506 0.000000
0.253506 0.250000
0.625000 0.250000
0.625000 0.371494
0.625000 0.500000
0.625000 0.750000
0.625000 0.878506
0.625000 1.000000
0.625000 0.500000
0.502468 0.500000
0.375000 0.500000
0.125000 0.000000
0.125000 0.250000
0.875000 0.000000
0.875000 0.250000
0.502468 0.250000
0.375000 0.250000
0.375000 0.371494
0.375000 0.371494
0.625000 0.250000
0.625000 0.371494
0.625000 0.371494
0.625000 0.500000
0.502468 0.500000
0.375000 0.500000
</float_array>
          <technique_common>
            <accessor source="#polySurface1-UV0-array" count="45" stride="2">
              <param name="S" type="float"/>
              <param name="T" type="float"/>
            </accessor>
          </technique_common>
        </source>
        <vertices id="polySurface1-VERTEX">
          <input semantic="POSITION" source="#polySurface1-POSITION"/>
        </vertices>
        <triangles count="64" material="lambert1">
          <input semantic="VERTEX" offset="0" source="#polySurface1-VERTEX"/>
          <input semantic="NORMAL" offset="1" source="#polySurface1-Normal0"/>
          <input semantic="TEXCOORD" offset="2" set="0" source="#polySurface1-UV0"/>
          <p> 2 0 3 11 1 1 8 2 2 11 3 1 2 4 3 0 5 0 26 6 5 27 7 6 25 8 4 25 9 4 27 10 6 28 11 7 10 12 10 6 13 11 4 14 8 10 15 10 4 16 8 9 17 9 0 18 15 15 19 13 11 20 14 15 21 13 0 22 15 14 23 12 3 24 19 16 25 17 12 26 18 16 27 17 3 28 19 1 29 16 2 30 3 14 31 20 0 32 0 14 33 20 2 34 3 13 35 21 29 36 22 27 37 6 26 38 5 27 39 6 29 40 22 30 41 23 9 42 9 5 43 24 10 44 10 7 45 25 10 46 10 5 47 24 15 48 13 1 49 27 11 50 14 1 51 27 15 52 13 16 53 26 11 54 1 3 55 19 8 56 2 3 57 19 11 58 1 1 59 16 30 60 23 31 61 28 27 62 6 27 63 6 31 64 28 32 65 29 27 66 6 33 67 30 28 68 7 33 69 30 27 70 6 32 71 29 14 72 20 4 73 32 6 74 31 4 75 32 14 76 20 13 77 21 15 78 13 14 79 12 6 80 11 15 81 13 6 82 11 10 83 10 15 84 13 7 85 25 16 86 26 7 87 25 15 88 13 10 89 10 16 90 17 5 91 34 12 92 18 5 93 34 16 94 17 7 95 33 17 96 36 8 97 2 18 98 35 8 99 2 17 100 36 2 101 3 13 102 37 2 103 3 17 104 36 13 105 37 17 106 36 19 107 38 20 108 39 8 109 2 3 110 19 8 111 2 20 112 39 18 113 35 12 114 40 20 115 39 3 116 19 20 117 39 12 118 40 21 119 41 12 120 40 5 121 24 22 122 42 12 123 40 22 124 42 21 125 41 22 126 42 9 127 9 23 128 43 9 129 9 22 130 42 5 131 24 24 132 44 23 133 43 9 134 9 9 135 9 4 136 8 24 137 44 13 138 37 24 139 44 4 140 8 24 141 44 13 142 37 19 143 38 25 144 4 18 145 35 26 146 5 18 147 35 25 148 4 17 149 36 25 150 4 19 151 38 17 152 36 19 153 38 25 154 4 28 155 7 29 156 22 26 157 5 18 158 35 18 159 35 20 160 39 29 161 22 29 162 22 21 163 41 30 164 23 21 165 41 29 166 22 20 167 39 31 168 28 30 169 23 21 170 41 21 171 41 22 172 42 31 173 28 23 174 43 31 175 28 22 176 42 31 177 28 23 178 43 32 179 29 33 180 30 23 181 43 24 182 44 23 183 43 33 184 30 32 185 29 19 186 38 33 187 30 24 188 44 33 189 30 19 190 38 28 191 7</p>
        </triangles>
      </mesh>
    </geometry>
    <geometry id="polySurface2-lib" name="polySurface2Mesh">
      <mesh>
        <source id="polySurface2-POSITION">
          <float_array id="polySurface2-POSITION-array" count="27">
-0.224046 -0.439541 0.224046
0.006003 -0.439541 0.304024
0.006003 -0.439541 0.008527
-0.304024 -0.439541 0.008527
0.224046 -0.439541 0.224046
0.304024 -0.439541 0.008527
0.224046 -0.439541 -0.224046
0.006003 -0.439541 -0.304024
-0.224046 -0.439541 -0.224046
</float_array>
          <technique_common>
            <accessor source="#polySurface2-POSITION-array" count="9" stride="3">
              <param name="X" type="float"/>
              <param name="Y" type="float"/>
              <param name="Z" type="float"/>
            </accessor>
          </technique_common>
        </source>
        <source id="polySurface2-Normal0">
          <float_array id="polySurface2-Normal0-array" count="27">
0.000000 1.000000 0.000000
0.000000 1.000000 0.000000
0.000000 1.000000 0.000000
0.000000 1.000000 0.000000
0.000000 1.000000 0.000000
0.000000 1.000000 0.000000
0.000000 1.000000 0.000000
0.000000 1.000000 0.000000
0.000000 1.000000 0.000000
</float_array>
          <technique_common>
            <accessor source="#polySurface2-Normal0-array" count="9" stride="3">
              <param name="X" type="float"/>
              <param name="Y" type="float"/>
              <param name="Z" type="float"/>
            </accessor>
          </technique_common>
        </source>
        <source id="polySurface2-UV0">
          <float_array id="polySurface2-UV0-array" count="18">
0.375000 0.250000
0.502468 0.250000
0.502468 0.371494
0.375000 0.371494
0.625000 0.250000
0.625000 0.371494
0.625000 0.500000
0.502468 0.500000
0.375000 0.500000
</float_array>
          <technique_common>
            <accessor source="#polySurface2-UV0-array" count="9" stride="2">
              <param name="S" type="float"/>
              <param name="T" type="float"/>
            </accessor>
          </technique_common>
        </source>
        <vertices id="polySurface2-VERTEX">
          <input semantic="POSITION" source="#polySurface2-POSITION"/>
          <input semantic="NORMAL" source="#polySurface2-Normal0"/>
        </vertices>
        <triangles count="8" material="lambert1">
          <input semantic="VERTEX" offset="0" source="#polySurface2-VERTEX"/>
          <input semantic="TEXCOORD" offset="1" set="0" source="#polySurface2-UV0"/>
          <p> 1 1 2 2 0 0 0 0 2 2 3 3 4 4 2 2 1 1 2 2 4 4 5 5 5 5 6 6 2 2 2 2 6 6 7 7 2 2 8 8 3 3 8 8 2 2 7 7</p>
        </triangles>
      </mesh>
    </geometry>
  </library_geometries>
  <library_visual_scenes>
    <visual_scene id="snowhole" name="snowhole">
      <node name="pCube3" id="pCube3" sid="pCube3">
        <matrix sid="matrix">6.209557 0.000000 0.000000 0.000000 0.000000 6.209557 0.000000 0.000000 0.000000 0.000000 6.209557 0.000000 0.000000 0.000000 0.000000 1.000000</matrix>
        <extra>
          <technique profile="FCOLLADA">
            <visibility>1.000000</visibility>
          </technique>
        </extra>
        <node name="polySurface1" id="polySurface1" sid="polySurface1">
          <matrix sid="matrix">1.000000 0.000000 0.000000 0.000000 0.000000 1.000000 0.000000 0.000000 0.000000 0.000000 1.000000 0.000000 0.000000 0.000000 0.000000 1.000000</matrix>
          <instance_geometry url="#polySurface1-lib">
            <bind_material>
              <technique_common>
                <instance_material symbol="lambert1" target="#lambert1"/>
              </technique_common>
            </bind_material>
          </instance_geometry>
          <extra>
            <technique profile="FCOLLADA">
              <visibility>1.000000</visibility>
            </technique>
          </extra>
        </node>
        <node name="polySurface2" id="polySurface2" sid="polySurface2">
          <matrix sid="matrix">1.169644 0.000000 0.000000 0.000000 0.000000 1.169644 0.000000 0.076747 0.000000 0.000000 1.169644 0.000000 0.000000 0.000000 0.000000 1.000000</matrix>
          <instance_geometry url="#polySurface2-lib">
            <bind_material>
              <technique_common>
                <instance_material symbol="lambert1" target="#lambert1"/>
              </technique_common>
            </bind_material>
          </instance_geometry>
          <extra>
            <technique profile="FCOLLADA">
              <visibility>1.000000</visibility>
            </technique>
          </extra>
        </node>
        <node name="transform1" id="transform1" sid="transform1">
          <matrix sid="matrix">1.000000 0.000000 0.000000 0.000000 0.000000 1.000000 0.000000 0.000000 0.000000 0.000000 1.000000 0.000000 0.000000 0.000000 0.000000 1.000000</matrix>
          <extra>
            <technique profile="FCOLLADA">
              <visibility>0.000000</visibility>
            </technique>
          </extra>
        </node>
      </node>
      <extra>
        <technique profile="MAX3D">
          <frame_rate>24.000000</frame_rate>
        </technique>
        <technique profile="FCOLLADA">
          <start_time>0.041667</start_time>
          <end_time>8.333333</end_time>
        </technique>
      </extra>
    </visual_scene>
  </library_visual_scenes>
  <scene>
    <instance_visual_scene url="#snowhole"/>
  </scene>
</COLLADA>
