%YAML 1.1
%TAG !u! tag:unity3d.com,2011:
--- !u!1 &9006890780983640090
GameObject:
  m_ObjectHideFlags: 0
  m_CorrespondingSourceObject: {fileID: 0}
  m_PrefabInstance: {fileID: 0}
  m_PrefabAsset: {fileID: 0}
  serializedVersion: 6
  m_Component:
  - component: {fileID: 1055728791235585122}
  - component: {fileID: 8606750432754506383}
  m_Layer: 0
  m_Name: Rand_SpiralPlacement
  m_TagString: Untagged
  m_Icon: {fileID: 0}
  m_NavMeshLayer: 0
  m_StaticEditorFlags: 0
  m_IsActive: 1
--- !u!4 &1055728791235585122
Transform:
  m_ObjectHideFlags: 0
  m_CorrespondingSourceObject: {fileID: 0}
  m_PrefabInstance: {fileID: 0}
  m_PrefabAsset: {fileID: 0}
  m_GameObject: {fileID: 9006890780983640090}
  m_LocalRotation: {x: 0, y: 0, z: 0, w: 1}
  m_LocalPosition: {x: 0, y: 0, z: 0}
  m_LocalScale: {x: 1, y: 1, z: 1}
  m_Children: []
  m_Father: {fileID: 0}
  m_RootOrder: 0
  m_LocalEulerAnglesHint: {x: 0, y: 0, z: 0}
--- !u!114 &8606750432754506383
MonoBehaviour:
  m_ObjectHideFlags: 0
  m_CorrespondingSourceObject: {fileID: 0}
  m_PrefabInstance: {fileID: 0}
  m_PrefabAsset: {fileID: 0}
  m_GameObject: {fileID: 9006890780983640090}
  m_Enabled: 1
  m_EditorHideFlags: 0
  m_Script: {fileID: 11500000, guid: 619087e8ad52e114fbfb46a401de6939, type: 3}
  m_Name: 
  m_EditorClassIdentifier: 
  itemPrefabs:
  - {fileID: 1370803906859180221, guid: 131f36f55b6903f44978a74546591ef9, type: 3}
  - {fileID: 681902433255432167, guid: 2d4dbac743989814ca591119a0fdb830, type: 3}
  - {fileID: 1370803906859180221, guid: dbc93adeda7f6434ea56920077303d82, type: 3}
  itemPrefabs_Base: []
